…
## Example

``` r
dataset <- iris
names(dataset)
#> [1] "Sepal.Length" "Sepal.Width"  "Petal.Length" "Petal.Width"  "Species"

fake_this(dataset) |>
  fake_preserve(Sepal.Length, Species) |>
  fake_generate()
#> $dataset
#> # A tibble: 150 × 5
#>    Sepal.Length Sepal.Width Petal.Length Petal.Width Species
#>           <dbl>       <dbl>        <dbl>       <dbl> <fct>  
#>  1          5.1        3.84         5.22       1.12  setosa 
#>  2          4.9        4.17         3.15       0.238 setosa 
#>  3          4.7        3.37         2.21       1.28  setosa 
#>  4          4.6        2.50         4.96       0.352 setosa 
#>  5          5          2.40         1.21       0.853 setosa 
#>  6          5.4        4.34         5.44       2.46  setosa 
#>  7          4.6        4.22         2.00       0.869 setosa 
#>  8          5          3.47         4.12       1.06  setosa 
#>  9          4.4        3.17         6.80       2.21  setosa 
#> 10          4.9        2.62         3.07       0.229 setosa 
#> # … with 140 more rows
…
